<?xml version="1.0" encoding="utf-8"?>
<!-- Generator: Adobe Illustrator 16.0.0, SVG Export Plug-In . SVG Version: 6.00 Build 0)  -->
<!DOCTYPE svg PUBLIC "-//W3C//DTD SVG 1.1//EN" "http://www.w3.org/Graphics/SVG/1.1/DTD/svg11.dtd">
<svg version="1.1" id="Layer_1" xmlns="http://www.w3.org/2000/svg" xmlns:xlink="http://www.w3.org/1999/xlink" x="0px" y="0px"
	 width="612px" height="792px" viewBox="0 0 612 792" enable-background="new 0 0 612 792" xml:space="preserve">
<g>
	<path fill="#333333" d="M144.724,390.684c-11.096-11.096-11.096-29.173,0-40.269c11.097-11.096,29.173-11.096,40.269,0
		l93.747,93.748V114.228c0-15.712,12.766-28.478,28.478-28.478c15.713,0,28.477,12.766,28.477,28.478v329.936l93.748-93.748
		c11.096-11.096,29.173-11.096,40.269,0c11.097,11.096,11.097,29.173,0,40.269L327.324,533.07
		c-5.591,5.59-12.876,8.316-20.163,8.316c-7.286,0-14.572-2.782-20.162-8.316L144.724,390.684z M592.046,683.772
		c0-15.712-12.765-28.477-28.478-28.477H50.977c-15.712,0-28.477,12.765-28.477,28.477s12.765,28.478,28.477,28.478h512.591
		C579.281,712.25,592.046,699.484,592.046,683.772z"/>
</g>
</svg>
