<?xml version="1.0" encoding="utf-8"?>
<!-- Generator: Adobe Illustrator 16.0.0, SVG Export Plug-In . SVG Version: 6.00 Build 0)  -->
<!DOCTYPE svg PUBLIC "-//W3C//DTD SVG 1.1//EN" "http://www.w3.org/Graphics/SVG/1.1/DTD/svg11.dtd">
<svg version="1.1" id="Layer_1" xmlns="http://www.w3.org/2000/svg" xmlns:xlink="http://www.w3.org/1999/xlink" x="0px" y="0px"
	 width="612px" height="792px" viewBox="0 0 612 792" enable-background="new 0 0 612 792" xml:space="preserve">
<g>
	<path fill="#333333" d="M204.167,168.01c-43.998,0-53.13,9.133-53.13,53.13v371.91c0,44.049,9.132,53.13,53.13,53.13
		c44.05,0,53.13-9.081,53.13-53.13V221.14C257.297,177.143,248.218,168.01,204.167,168.01z M416.688,168.01
		c-43.998,0-53.13,9.133-53.13,53.13v371.91c0,44.049,9.132,53.13,53.13,53.13c44.05,0,53.13-9.081,53.13-53.13V221.14
		C469.817,177.143,460.737,168.01,416.688,168.01z"/>
</g>
</svg>
